10 Classical Poisson Regression – The Regression Cookbook (in development)
…
import pandas as pd
print(crabs.dtypes)
crabs

R Output

Python Output

# A tibble: 173 × 5
   satell width color spine weight
    <int> <dbl> <fct> <fct>  <dbl>
 1      8  28.3 2     3       3.05
 2      0  22.5 3     3       1.55
 3      9  26   1     1       2.3 
 4      0  24.8 3     3       2.1 
 5      4  26   3     3       2.6 
 6      0  23.8 2     3       2.1 
 7      0  26.5 1     1       2.35
 8      0  24.7 3     2       1.9 
 9      0  23.7 2     1       1.95
10      0  25.6 3     3       2.15
# ℹ 163 more rows
…
