14 Multinomial Logistic Regression – The Regression Cookbook (in development)
…
url = "https://raw.githubusercontent.com/andytai7/cookbook/refs/heads/main/raw-data/multinomial_transport.csv"
data = pd.read_csv(url)
data = data.iloc[:, :-1]
print(f"There are {data.shape[0]} observations and {data.shape[1]} variables in the dataset.")
print(data)

R Output

Python Output

There are 1000 observations and 5 variables in the dataset.

# A tibble: 1,000 × 5
   transport_mode commute_distance   age has_car_available weekend_commuter
   <chr>                     <dbl> <dbl> <chr>             <chr>           
 1 Public_Transit             22.9    58 No                No              
 2 Public_Transit             23.5    21 Yes               Yes             
 3 Bicycle                     7.5    57 Yes               No              
 4 Public_Transit             20.8    43 No                No              
 5 Public_Transit             16.2    41 No                No              
 6 Car                        13.2    19 No                No              
 7 Car                        18.5    44 Yes               No              
 8 Public_Transit              3.8    52 No                No              
 9 Public_Transit             16.6    29 Yes               No              
10 Public_Transit             17.8    56 Yes               No              
# ℹ 990 more rows
…
